%YAML 1.1
%TAG !u! tag:unity3d.com,2011:
--- !u!114 &11400000
MonoBehaviour:
  m_ObjectHideFlags: 0
  m_CorrespondingSourceObject: {fileID: 0}
  m_PrefabInstance: {fileID: 0}
  m_PrefabAsset: {fileID: 0}
  m_GameObject: {fileID: 0}
  m_Enabled: 1
  m_EditorHideFlags: 0
  m_Script: {fileID: 11500000, guid: 461adf82cf1f1a248af57734e067d54e, type: 3}
  m_Name: Avocado_2_FlexSolidAsset
  m_EditorClassIdentifier: 
  m_particles:
  - {x: -0.0015000002, y: -0.027425986, z: -0.019772358, w: 1}
  - {x: -0.0015000002, y: -0.027425986, z: -0.00977236, w: 1}
  - {x: -0.0015000002, y: -0.017425984, z: -0.02977236, w: 1}
  - {x: -0.0015000002, y: -0.017425984, z: -0.019772358, w: 1}
  - {x: -0.0015000002, y: -0.017425984, z: -0.00977236, w: 1}
  - {x: -0.0015000002, y: -0.007425987, z: -0.02977236, w: 1}
  - {x: -0.0015000002, y: -0.007425987, z: -0.019772358, w: 1}
  - {x: -0.0015000002, y: -0.007425987, z: -0.00977236, w: 1}
  - {x: -0.0015000002, y: 0.0025740145, z: -0.02977236, w: 1}
  - {x: -0.0015000002, y: 0.0025740145, z: -0.019772358, w: 1}
  - {x: -0.0015000002, y: 0.012574012, z: -0.02977236, w: 1}
  - {x: -0.0015000002, y: 0.012574012, z: -0.019772358, w: 1}
  - {x: -0.0015000002, y: 0.022574011, z: -0.02977236, w: 1}
  - {x: -0.0015000002, y: 0.022574011, z: -0.019772358, w: 1}
  - {x: -0.0015000002, y: 0.022574011, z: -0.00977236, w: 1}
  - {x: -0.0015000002, y: 0.032574017, z: -0.02977236, w: 1}
  - {x: -0.0015000002, y: 0.032574017, z: -0.019772358, w: 1}
  - {x: -0.0015000002, y: 0.032574017, z: -0.00977236, w: 1}
  - {x: -0.0015000002, y: 0.042574015, z: -0.019772358, w: 1}
  - {x: -0.0015000002, y: 0.042574015, z: -0.00977236, w: 1}
  - {x: -0.0015000002, y: 0.052574012, z: -0.019772358, w: 1}
  - {x: -0.0015000002, y: 0.052574012, z: -0.00977236, w: 1}
  m_maxParticles: 22
  m_springIndices: 
  m_springCoefficients: []
  m_springRestLengths: []
  m_shapeIndices: 000000000100000002000000030000000400000005000000060000000700000008000000090000000a0000000b0000000c0000000d0000000e0000000f000000100000001100000012000000130000001400000015000000
  m_shapeOffsets: 16000000
  m_shapeCoefficients:
  - 1
  m_shapeCenters:
  - {x: -0.0015000002, y: 0.011664922, z: -0.019317813}
  m_triangleIndices: 
  m_inflatable: 0
  m_inflatableVolume: 0
  m_inflatablePressure: 0
  m_inflatableStiffness: 0
  m_fixedParticles: 
  m_rebuildAsset: 0
  m_boundaryMesh: {fileID: -7120405939578521403, guid: ecc9e8cd7acaa4e8d81b0f34a2b9fc86,
    type: 3}
  m_meshLocalScale: {x: 1, y: 1, z: 1}
  m_meshExpansion: 0
  m_particleSpacing: 0.01
