%YAML 1.1
%TAG !u! tag:unity3d.com,2011:
--- !u!114 &11400000
MonoBehaviour:
  m_ObjectHideFlags: 0
  m_CorrespondingSourceObject: {fileID: 0}
  m_PrefabInstance: {fileID: 0}
  m_PrefabAsset: {fileID: 0}
  m_GameObject: {fileID: 0}
  m_Enabled: 1
  m_EditorHideFlags: 0
  m_Script: {fileID: 11500000, guid: 461adf82cf1f1a248af57734e067d54e, type: 3}
  m_Name: Cashew_FlexSolidAsset
  m_EditorClassIdentifier: 
  m_particles:
  - {x: -0.007000001, y: 0.0031484629, z: -0.0070000007, w: 1}
  - {x: -0.007000001, y: 0.0031484629, z: -0.0034999999, w: 1}
  - {x: -0.007000001, y: 0.0031484629, z: -3.2014214e-10, w: 1}
  - {x: -0.007000001, y: 0.0031484629, z: 0.0034999994, w: 1}
  - {x: -0.0035000008, y: 0.0031484629, z: -0.0070000007, w: 1}
  - {x: -0.0035000008, y: 0.0031484629, z: -0.0034999999, w: 1}
  - {x: -0.0035000008, y: 0.0031484629, z: -3.2014214e-10, w: 1}
  - {x: -0.0035000008, y: 0.0031484629, z: 0.0034999994, w: 1}
  - {x: -0.0035000008, y: 0.0031484629, z: 0.0070000007, w: 1}
  - {x: -0.0000000011059456, y: 0.0031484629, z: 0.0034999994, w: 1}
  - {x: -0.0000000011059456, y: 0.0031484629, z: 0.0070000007, w: 1}
  - {x: 0.0034999985, y: 0.0031484629, z: 0.0034999994, w: 1}
  - {x: 0.0034999985, y: 0.0031484629, z: 0.0070000007, w: 1}
  - {x: 0.007, y: 0.0031484629, z: 0.0034999994, w: 1}
  m_maxParticles: 14
  m_springIndices: 
  m_springCoefficients: []
  m_springRestLengths: []
  m_shapeIndices: 000000000100000002000000030000000400000005000000060000000700000008000000090000000a0000000b0000000c0000000d000000
  m_shapeOffsets: 0e000000
  m_shapeCoefficients:
  - 1
  m_shapeCenters:
  - {x: -0.002250001, y: 0.0031484629, z: 0.0012499999}
  m_triangleIndices: 
  m_inflatable: 0
  m_inflatableVolume: 0
  m_inflatablePressure: 0
  m_inflatableStiffness: 0
  m_fixedParticles: 
  m_rebuildAsset: 0
  m_boundaryMesh: {fileID: 6004543379832914119, guid: 0b937431427e54032ac8bc57841a0624,
    type: 3}
  m_meshLocalScale: {x: 1, y: 1, z: 1}
  m_meshExpansion: 0
  m_particleSpacing: 0.0035
