%YAML 1.1
%TAG !u! tag:unity3d.com,2011:
--- !u!114 &11400000
MonoBehaviour:
  m_ObjectHideFlags: 0
  m_CorrespondingSourceObject: {fileID: 0}
  m_PrefabInstance: {fileID: 0}
  m_PrefabAsset: {fileID: 0}
  m_GameObject: {fileID: 0}
  m_Enabled: 1
  m_EditorHideFlags: 0
  m_Script: {fileID: 11500000, guid: 461adf82cf1f1a248af57734e067d54e, type: 3}
  m_Name: Chickpea_FlexSolidAsset
  m_EditorClassIdentifier: 
  m_particles:
  - {x: -0.0034527106, y: -0.0035000015, z: -0.0034729664, w: 1}
  - {x: -0.0034527106, y: -0.0035000015, z: 0.0035270348, w: 1}
  - {x: -0.0034527106, y: 0.0034999996, z: -0.0034729664, w: 1}
  - {x: -0.0034527106, y: 0.0034999996, z: 0.0035270348, w: 1}
  - {x: 0.0035472906, y: -0.0035000015, z: -0.0034729664, w: 1}
  - {x: 0.0035472906, y: -0.0035000015, z: 0.0035270348, w: 1}
  - {x: 0.0035472906, y: 0.0034999996, z: -0.0034729664, w: 1}
  - {x: 0.0035472906, y: 0.0034999996, z: 0.0035270348, w: 1}
  m_maxParticles: 8
  m_springIndices: 
  m_springCoefficients: []
  m_springRestLengths: []
  m_shapeIndices: 0000000001000000020000000300000004000000050000000600000007000000
  m_shapeOffsets: 08000000
  m_shapeCoefficients:
  - 1
  m_shapeCenters:
  - {x: 0.000047290112, y: -9.0706936e-10, z: 0.000027034233}
  m_triangleIndices: 
  m_inflatable: 0
  m_inflatableVolume: 0
  m_inflatablePressure: 0
  m_inflatableStiffness: 0
  m_fixedParticles: 
  m_rebuildAsset: 0
  m_boundaryMesh: {fileID: 6270047762994272840, guid: b8f799f5bcbe5409a85686e5cb0c6272,
    type: 3}
  m_meshLocalScale: {x: 1, y: 1, z: 1}
  m_meshExpansion: 0
  m_particleSpacing: 0.007
