%YAML 1.1
%TAG !u! tag:unity3d.com,2011:
--- !u!114 &11400000
MonoBehaviour:
  m_ObjectHideFlags: 0
  m_CorrespondingSourceObject: {fileID: 0}
  m_PrefabInstance: {fileID: 0}
  m_PrefabAsset: {fileID: 0}
  m_GameObject: {fileID: 0}
  m_Enabled: 1
  m_EditorHideFlags: 0
  m_Script: {fileID: 11500000, guid: 461adf82cf1f1a248af57734e067d54e, type: 3}
  m_Name: Sauce_FlexSolidAsset
  m_EditorClassIdentifier: 
  m_particles:
  - {x: -0.020999996, y: 0.003121599, z: -0.0029999986, w: 1}
  - {x: -0.020999996, y: 0.003121599, z: 0.0030000024, w: 1}
  - {x: -0.020999996, y: 0.009121599, z: -0.0029999986, w: 1}
  - {x: -0.020999996, y: 0.009121599, z: 0.0030000024, w: 1}
  - {x: -0.014999998, y: 0.003121599, z: -0.014999999, w: 1}
  - {x: -0.014999998, y: 0.003121599, z: -0.008999998, w: 1}
  - {x: -0.014999998, y: 0.003121599, z: -0.0029999986, w: 1}
  - {x: -0.014999998, y: 0.003121599, z: 0.0030000024, w: 1}
  - {x: -0.014999998, y: 0.003121599, z: 0.009000003, w: 1}
  - {x: -0.014999998, y: 0.003121599, z: 0.015000001, w: 1}
  - {x: -0.014999998, y: 0.009121599, z: -0.014999999, w: 1}
  - {x: -0.014999998, y: 0.009121599, z: -0.008999998, w: 1}
  - {x: -0.014999998, y: 0.009121599, z: -0.0029999986, w: 1}
  - {x: -0.014999998, y: 0.009121599, z: 0.0030000024, w: 1}
  - {x: -0.014999998, y: 0.009121599, z: 0.009000003, w: 1}
  - {x: -0.014999998, y: 0.009121599, z: 0.015000001, w: 1}
  - {x: -0.014999998, y: 0.0151216, z: -0.0029999986, w: 1}
  - {x: -0.014999998, y: 0.0151216, z: 0.0030000024, w: 1}
  - {x: -0.008999997, y: 0.003121599, z: -0.014999999, w: 1}
  - {x: -0.008999997, y: 0.003121599, z: -0.008999998, w: 1}
  - {x: -0.008999997, y: 0.003121599, z: -0.0029999986, w: 1}
  - {x: -0.008999997, y: 0.003121599, z: 0.0030000024, w: 1}
  - {x: -0.008999997, y: 0.003121599, z: 0.009000003, w: 1}
  - {x: -0.008999997, y: 0.003121599, z: 0.015000001, w: 1}
  - {x: -0.008999997, y: 0.009121599, z: -0.014999999, w: 1}
  - {x: -0.008999997, y: 0.009121599, z: -0.008999998, w: 1}
  - {x: -0.008999997, y: 0.009121599, z: -0.0029999986, w: 1}
  - {x: -0.008999997, y: 0.009121599, z: 0.0030000024, w: 1}
  - {x: -0.008999997, y: 0.009121599, z: 0.009000003, w: 1}
  - {x: -0.008999997, y: 0.009121599, z: 0.015000001, w: 1}
  - {x: -0.008999997, y: 0.0151216, z: -0.014999999, w: 1}
  - {x: -0.008999997, y: 0.0151216, z: -0.008999998, w: 1}
  - {x: -0.008999997, y: 0.0151216, z: -0.0029999986, w: 1}
  - {x: -0.008999997, y: 0.0151216, z: 0.0030000024, w: 1}
  - {x: -0.008999997, y: 0.0151216, z: 0.009000003, w: 1}
  - {x: -0.008999997, y: 0.0151216, z: 0.015000001, w: 1}
  - {x: -0.0029999975, y: 0.003121599, z: -0.020999998, w: 1}
  - {x: -0.0029999975, y: 0.003121599, z: -0.014999999, w: 1}
  - {x: -0.0029999975, y: 0.003121599, z: -0.008999998, w: 1}
  - {x: -0.0029999975, y: 0.003121599, z: -0.0029999986, w: 1}
  - {x: -0.0029999975, y: 0.003121599, z: 0.0030000024, w: 1}
  - {x: -0.0029999975, y: 0.003121599, z: 0.009000003, w: 1}
  - {x: -0.0029999975, y: 0.003121599, z: 0.015000001, w: 1}
  - {x: -0.0029999975, y: 0.003121599, z: 0.021000002, w: 1}
  - {x: -0.0029999975, y: 0.009121599, z: -0.014999999, w: 1}
  - {x: -0.0029999975, y: 0.009121599, z: -0.008999998, w: 1}
  - {x: -0.0029999975, y: 0.009121599, z: -0.0029999986, w: 1}
  - {x: -0.0029999975, y: 0.009121599, z: 0.0030000024, w: 1}
  - {x: -0.0029999975, y: 0.009121599, z: 0.009000003, w: 1}
  - {x: -0.0029999975, y: 0.009121599, z: 0.015000001, w: 1}
  - {x: -0.0029999975, y: 0.0151216, z: -0.014999999, w: 1}
  - {x: -0.0029999975, y: 0.0151216, z: -0.008999998, w: 1}
  - {x: -0.0029999975, y: 0.0151216, z: -0.0029999986, w: 1}
  - {x: -0.0029999975, y: 0.0151216, z: 0.0030000024, w: 1}
  - {x: -0.0029999975, y: 0.0151216, z: 0.009000003, w: 1}
  - {x: -0.0029999975, y: 0.0151216, z: 0.015000001, w: 1}
  - {x: -0.0029999975, y: 0.021121599, z: -0.0029999986, w: 1}
  - {x: -0.0029999975, y: 0.021121599, z: 0.0030000024, w: 1}
  - {x: 0.0030000035, y: 0.003121599, z: -0.020999998, w: 1}
  - {x: 0.0030000035, y: 0.003121599, z: -0.014999999, w: 1}
  - {x: 0.0030000035, y: 0.003121599, z: -0.008999998, w: 1}
  - {x: 0.0030000035, y: 0.003121599, z: -0.0029999986, w: 1}
  - {x: 0.0030000035, y: 0.003121599, z: 0.0030000024, w: 1}
  - {x: 0.0030000035, y: 0.003121599, z: 0.009000003, w: 1}
  - {x: 0.0030000035, y: 0.003121599, z: 0.015000001, w: 1}
  - {x: 0.0030000035, y: 0.003121599, z: 0.021000002, w: 1}
  - {x: 0.0030000035, y: 0.009121599, z: -0.014999999, w: 1}
  - {x: 0.0030000035, y: 0.009121599, z: -0.008999998, w: 1}
  - {x: 0.0030000035, y: 0.009121599, z: -0.0029999986, w: 1}
  - {x: 0.0030000035, y: 0.009121599, z: 0.0030000024, w: 1}
  - {x: 0.0030000035, y: 0.009121599, z: 0.009000003, w: 1}
  - {x: 0.0030000035, y: 0.009121599, z: 0.015000001, w: 1}
  - {x: 0.0030000035, y: 0.0151216, z: -0.014999999, w: 1}
  - {x: 0.0030000035, y: 0.0151216, z: -0.008999998, w: 1}
  - {x: 0.0030000035, y: 0.0151216, z: -0.0029999986, w: 1}
  - {x: 0.0030000035, y: 0.0151216, z: 0.0030000024, w: 1}
  - {x: 0.0030000035, y: 0.0151216, z: 0.009000003, w: 1}
  - {x: 0.0030000035, y: 0.0151216, z: 0.015000001, w: 1}
  - {x: 0.0030000035, y: 0.021121599, z: -0.0029999986, w: 1}
  - {x: 0.0030000035, y: 0.021121599, z: 0.0030000024, w: 1}
  - {x: 0.009000004, y: 0.003121599, z: -0.014999999, w: 1}
  - {x: 0.009000004, y: 0.003121599, z: -0.008999998, w: 1}
  - {x: 0.009000004, y: 0.003121599, z: -0.0029999986, w: 1}
  - {x: 0.009000004, y: 0.003121599, z: 0.0030000024, w: 1}
  - {x: 0.009000004, y: 0.003121599, z: 0.009000003, w: 1}
  - {x: 0.009000004, y: 0.003121599, z: 0.015000001, w: 1}
  - {x: 0.009000004, y: 0.009121599, z: -0.014999999, w: 1}
  - {x: 0.009000004, y: 0.009121599, z: -0.008999998, w: 1}
  - {x: 0.009000004, y: 0.009121599, z: -0.0029999986, w: 1}
  - {x: 0.009000004, y: 0.009121599, z: 0.0030000024, w: 1}
  - {x: 0.009000004, y: 0.009121599, z: 0.009000003, w: 1}
  - {x: 0.009000004, y: 0.009121599, z: 0.015000001, w: 1}
  - {x: 0.009000004, y: 0.0151216, z: -0.014999999, w: 1}
  - {x: 0.009000004, y: 0.0151216, z: -0.008999998, w: 1}
  - {x: 0.009000004, y: 0.0151216, z: -0.0029999986, w: 1}
  - {x: 0.009000004, y: 0.0151216, z: 0.0030000024, w: 1}
  - {x: 0.009000004, y: 0.0151216, z: 0.009000003, w: 1}
  - {x: 0.009000004, y: 0.0151216, z: 0.015000001, w: 1}
  - {x: 0.0150000015, y: 0.003121599, z: -0.014999999, w: 1}
  - {x: 0.0150000015, y: 0.003121599, z: -0.008999998, w: 1}
  - {x: 0.0150000015, y: 0.003121599, z: -0.0029999986, w: 1}
  - {x: 0.0150000015, y: 0.003121599, z: 0.0030000024, w: 1}
  - {x: 0.0150000015, y: 0.003121599, z: 0.009000003, w: 1}
  - {x: 0.0150000015, y: 0.003121599, z: 0.015000001, w: 1}
  - {x: 0.0150000015, y: 0.009121599, z: -0.014999999, w: 1}
  - {x: 0.0150000015, y: 0.009121599, z: -0.008999998, w: 1}
  - {x: 0.0150000015, y: 0.009121599, z: -0.0029999986, w: 1}
  - {x: 0.0150000015, y: 0.009121599, z: 0.0030000024, w: 1}
  - {x: 0.0150000015, y: 0.009121599, z: 0.009000003, w: 1}
  - {x: 0.0150000015, y: 0.009121599, z: 0.015000001, w: 1}
  - {x: 0.0150000015, y: 0.0151216, z: -0.0029999986, w: 1}
  - {x: 0.0150000015, y: 0.0151216, z: 0.0030000024, w: 1}
  - {x: 0.021000003, y: 0.003121599, z: -0.0029999986, w: 1}
  - {x: 0.021000003, y: 0.003121599, z: 0.0030000024, w: 1}
  - {x: 0.021000003, y: 0.009121599, z: -0.0029999986, w: 1}
  - {x: 0.021000003, y: 0.009121599, z: 0.0030000024, w: 1}
  m_maxParticles: 116
  m_springIndices: 
  m_springCoefficients: []
  m_springRestLengths: []
  m_shapeIndices: 000000000100000002000000030000000400000005000000060000000700000008000000090000000a0000000b0000000c0000000d0000000e0000000f000000100000001100000012000000130000001400000015000000160000001700000018000000190000001a0000001b0000001c0000001d0000001e0000001f000000200000002100000022000000230000002400000025000000260000002700000028000000290000002a0000002b0000002c0000002d0000002e0000002f000000300000003100000032000000330000003400000035000000360000003700000038000000390000003a0000003b0000003c0000003d0000003e0000003f000000400000004100000042000000430000004400000045000000460000004700000048000000490000004a0000004b0000004c0000004d0000004e0000004f000000500000005100000052000000530000005400000055000000560000005700000058000000590000005a0000005b0000005c0000005d0000005e0000005f000000600000006100000062000000630000006400000065000000660000006700000068000000690000006a0000006b0000006c0000006d0000006e0000006f00000070000000710000007200000073000000
  m_shapeOffsets: 74000000
  m_shapeCoefficients:
  - 1
  m_shapeCenters:
  - {x: 0.000000004118694, y: 0.0087078065, z: 0.0000000018947597}
  m_triangleIndices: 
  m_inflatable: 0
  m_inflatableVolume: 0
  m_inflatablePressure: 0
  m_inflatableStiffness: 0
  m_fixedParticles: 
  m_rebuildAsset: 0
  m_boundaryMesh: {fileID: 973877516759717424, guid: 376e4efb1fb01434285a64be2ce166e2,
    type: 3}
  m_meshLocalScale: {x: 1, y: 1, z: 1}
  m_meshExpansion: 0
  m_particleSpacing: 0.006
